{
    "mainCtaegories": {
        "Criminal": [
            {
                "hebrewName": "כתב אישום",
                "enName": "Indictment"
            },
            {
                "hebrewName": "עדות",
                "enName": "Testimony"
            },
            {
                "hebrewName": "חקירה",
                "enName": "Interrogation"
            },
            {
                "hebrewName": "מוצגים",
                "enName": "Exhibits"
            },
            {
                "hebrewName": "אחר",
                "enName": "Other"
            }
        ],
        "Civil": [
            {
                "hebrewName": "לללל",
                "enName": "Statement of claim"
            },
            {
                "hebrewName": "אחר",
                "enName": "Statement of defense"
            },
            {
                "hebrewName": "אחר",
                "enName": "Chief affidavits"
            },
            {
                "hebrewName": "אחר",
                "enName": "Attaches"
            },
            {
                "hebrewName": "אחר",
                "enName": "Exhibitis"
            },
            {
                "hebrewName": "אחר",
                "enName": "Declarations"
            },
            {
                "hebrewName": "אחר",
                "enName": "Other"
            }
        ]
    },
    "subCategories": {
        "Criminal": [
          {
            "hebrewName": "כתב אישום",
            "enName": "Evidance hearing"
          },
          {
            "hebrewName": "עדות",
            "enName": "Summaries"
          },
          {
            "hebrewName": "חקירה",
            "enName": "Verdict"
          },
          {
            "hebrewName": "מוצגים",
            "enName": "Claim exhibits"
          },
          {
            "hebrewName": "מוצגים",
            "enName": "Defence exhibits"
          },
          {
            "hebrewName": "אחר",
            "enName": "Other"
          }
        ],
        "Civil": [
          {
            "hebrewName": "כתב אישום",
            "enName": "Hearing"
          },
          {
            "hebrewName": "עדות",
            "enName": "Summaries"
          },
          {
            "hebrewName": "חקירה",
            "enName": "Verdict"
          },
          {
            "hebrewName": "מוצגים",
            "enName": "Claim exhibits"
          },
          {
            "hebrewName": "מוצגים",
            "enName": "Defence exhibits"
          },
          {
            "hebrewName": "אחר",
            "enName": "Other"
          }
        ]
      }

}